{
    "window_settings": {
        "window_title": "MyWindow",
        "width": 800,
        "height": 600
    },
    "engine_settings": {
        "frame_rate_limit": 30,
        "resource_search_path": "../resources/"
    }
}